Hacia una bioestadística más completa
…
`\(|T| \geq Z_{\frac{\alpha}{2}}\text{ (DC)}\\T \geq Z_{\alpha}\text{ (CD)}\\T \leq -Z_{\alpha}\text{ (CI)}\)`

Si se cumple alguna de estas propuestas (dependiendo de la direccionalidad de la hipótesis), no se acepta `\(H_{0}\)`.
]

---
class: justify, animate__animated, animate__fadeIn

## Prueba de suma de rangos de Wilcoxon de una sola muestra - Ejemplo

Para este caso, se usarán datos provenientes de la medición de individuos vegetales (árboles y arbustos) del [Jardín Botánico de Caracas](https://www.openstreetmap.org/relation/3380028) y de [Cerro El Volcán](https://www.openstreetmap.org/relation/10703464).

```
## # A tibble: 281 × 8
##    individuo lugar muerto   cap   dap area.basal altura clase.dap         
##        <dbl> <chr> <chr>  <dbl> <dbl>      <dbl>  <dbl> <chr>             
##  1         1 CV    No      37.5 11.9     0.0990    9    DAP > 10          
##  2         2 CV    No     119   37.9     0.402    16    DAP > 10          
##  3         3 CV    No      72   22.9     1.03     16    DAP > 10          
##  4         4 CV    No       5    1.59    0.00497   2.7  1 cm < DAP ≤ 10 cm
##  5         5 CV    No      42   13.4     0.351    10.5  DAP > 10          
##  6         6 CV    No       7    2.23    0.00975   5.25 1 cm < DAP ≤ 10 cm
##  7         7 CV    Sí      29    9.23    0.167    NA    1 cm < DAP ≤ 10 cm
##  8         8 CV    No      29    9.23    0.167    13    1 cm < DAP ≤ 10 cm
##  9         9 CV    No      55   17.5     0.602    15    DAP > 10          
## 10        10 CV    No      12.5  3.98    0.0311    4.5  1 cm < DAP ≤ 10 cm
## # ℹ 271 more rows
```
…
